\relax 
\citation{suryotrisongko2017arsitektur}
\citation{sendiang2018implementasi}
\citation{hermawanpeningkatan}
\@writefile{toc}{\contentsline {chapter}{\numberline {II}LANDASAN TEORI}{4}\protected@file@percent }
\@writefile{lof}{\addvspace {10\p@ }}
\@writefile{lot}{\addvspace {10\p@ }}
\@writefile{toc}{\contentsline {section}{\numberline {2.1}Deskripsi Topik Yang Sama}{4}\protected@file@percent }
\@writefile{toc}{\contentsline {subsection}{\numberline {2.1.1}Arsitektur \textit  {Microservice} untuk Resiliensi Sistem Informasi}{4}\protected@file@percent }
\@writefile{toc}{\contentsline {paragraph}{}{4}\protected@file@percent }
\@writefile{toc}{\contentsline {subsection}{\numberline {2.1.2}Implementasi Teknologi Mikro \textit  {service} pada Pengembangan \textit  {Mobile Learning} }{4}\protected@file@percent }
\@writefile{toc}{\contentsline {paragraph}{}{4}\protected@file@percent }
\citation{brawijaya2018pengujian}
\citation{maulana2017software}
\@writefile{toc}{\contentsline {subsection}{\numberline {2.1.3}Peningkatan Ketersediaan Aplikasi Web Menggunakan Arsitektur Layanan Mikro Berdasarkan Identifikasi Log Akses}{5}\protected@file@percent }
\@writefile{toc}{\contentsline {paragraph}{}{5}\protected@file@percent }
\@writefile{toc}{\contentsline {section}{\numberline {2.2}Deskripsi Metode Yang Sama}{5}\protected@file@percent }
\@writefile{toc}{\contentsline {subsection}{\numberline {2.2.1}Pengujian Sistem Informasi Penjualan dan Persediaan Barang Dengan \textit  {Web Application Load Stress and Performance Testing} (WAPT)}{5}\protected@file@percent }
\@writefile{toc}{\contentsline {paragraph}{}{5}\protected@file@percent }
\citation{samudi2018penerapan}
\citation{suryotrisongko2017arsitektur}
\@writefile{toc}{\contentsline {subsection}{\numberline {2.2.2}\textit  {Software Testing} Pengujian Performansi dan Tingkat \textit  {Stress} Pada \textit  {Website} Ekspedisi JNE dan TIKI}{6}\protected@file@percent }
\@writefile{toc}{\contentsline {paragraph}{}{6}\protected@file@percent }
\@writefile{toc}{\contentsline {subsection}{\numberline {2.2.3}Penerapan Metode Waterfall dalam Sistem Informasi Bank Sampah berbasis Web}{6}\protected@file@percent }
\@writefile{toc}{\contentsline {paragraph}{}{6}\protected@file@percent }
\@writefile{toc}{\contentsline {section}{\numberline {2.3}Teori Umum}{6}\protected@file@percent }
\@writefile{toc}{\contentsline {subsection}{\numberline {2.3.1} \textit  {Microservices} }{6}\protected@file@percent }
\@writefile{toc}{\contentsline {paragraph}{}{6}\protected@file@percent }
\citation{godbolt2016frontend}
\citation{pis0809_2015}
\citation{van2016web}
\citation{khanapurkar2014system}
\@writefile{toc}{\contentsline {subsection}{\numberline {2.3.2} \textit  {Frontend} }{7}\protected@file@percent }
\@writefile{toc}{\contentsline {paragraph}{}{7}\protected@file@percent }
\@writefile{toc}{\contentsline {subsection}{\numberline {2.3.3} \textit  {Stress Testing}}{7}\protected@file@percent }
\@writefile{toc}{\contentsline {paragraph}{}{7}\protected@file@percent }
\@writefile{toc}{\contentsline {subsection}{\numberline {2.3.4}\textit  {Perfomance Testing}}{7}\protected@file@percent }
\@writefile{toc}{\contentsline {paragraph}{}{7}\protected@file@percent }
\@setckpt{section/chapter2}{
\setcounter{page}{9}
\setcounter{equation}{0}
\setcounter{enumi}{3}
\setcounter{enumii}{0}
\setcounter{enumiii}{0}
\setcounter{enumiv}{0}
\setcounter{footnote}{0}
\setcounter{mpfootnote}{0}
\setcounter{part}{0}
\setcounter{chapter}{2}
\setcounter{section}{3}
\setcounter{subsection}{4}
\setcounter{subsubsection}{0}
\setcounter{paragraph}{0}
\setcounter{subparagraph}{0}
\setcounter{figure}{0}
\setcounter{table}{0}
}
