This is BibTeX, Version 0.99d (TeX Live 2018/Arch Linux)
Capacity: max_strings=100000, hash_size=100000, hash_prime=85009
The top-level auxiliary file: main.aux
A level-1 auxiliary file: section/dedication.aux
A level-1 auxiliary file: section/pengesahan.aux
A level-1 auxiliary file: section/pernyataan.aux
A level-1 auxiliary file: section/halaman.aux
A level-1 auxiliary file: section/abstrak.aux
A level-1 auxiliary file: section/abstract.aux
A level-1 auxiliary file: section/acknowlegements.aux
A level-1 auxiliary file: section/simbol.aux
A level-1 auxiliary file: section/singkatan.aux
A level-1 auxiliary file: section/chapter1.aux
A level-1 auxiliary file: section/chapter2.aux
A level-1 auxiliary file: section/chapter3.aux
A level-1 auxiliary file: section/chapter4.aux
A level-1 auxiliary file: section/chapter5.aux
A level-1 auxiliary file: section/chapter6.aux
A level-1 auxiliary file: section/chapter7.aux
A level-1 auxiliary file: section/appendix1.aux
A level-1 auxiliary file: section/appendix3.aux
A level-1 auxiliary file: section/appendix2.aux
The style file: IEEEtran.bst
Reallocated singl_function (elt_size=8) to 100 items from 50.
Reallocated singl_function (elt_size=8) to 100 items from 50.
Reallocated singl_function (elt_size=8) to 100 items from 50.
Reallocated wiz_functions (elt_size=8) to 6000 items from 3000.
Reallocated singl_function (elt_size=8) to 100 items from 50.
Database file #1: references.bib
-- IEEEtran.bst version 1.14 (2015/08/26) by Michael Shell.
-- http://www.michaelshell.org/tex/ieeetran/bibtex/
-- See the "IEEEtran_bst_HOWTO.pdf" manual for usage information.
Warning--empty journal in sari2018implementasi
Warning--empty journal in ridwan2013pembangunan
Warning--edition ordinal word "Third Edition" may be too high (or improper) for conversion in HAN201283
Warning--edition ordinal word "Third Edition" may be too high (or improper) for conversion in HAN201239
Warning--empty journal in rahardjo2017studi

Done.
You've used 30 entries,
            4087 wiz_defined-function locations,
            996 strings with 13336 characters,
and the built_in function-call counts, 19485 in all, are:
= -- 1609
> -- 418
< -- 145
+ -- 213
- -- 76
* -- 937
:= -- 3106
add.period$ -- 65
call.type$ -- 30
change.case$ -- 34
chr.to.int$ -- 297
cite$ -- 35
duplicate$ -- 1469
empty$ -- 1605
format.name$ -- 95
if$ -- 4499
int.to.chr$ -- 0
int.to.str$ -- 30
missing$ -- 252
newline$ -- 113
num.names$ -- 34
pop$ -- 562
preamble$ -- 1
purify$ -- 0
quote$ -- 6
skip$ -- 1520
stack$ -- 0
substring$ -- 702
swap$ -- 1121
text.length$ -- 46
text.prefix$ -- 0
top$ -- 5
type$ -- 30
warning$ -- 5
while$ -- 88
width$ -- 32
write$ -- 305
(There were 5 warnings)
