\relax 
\providecommand \oddpage@label [2]{}
\@input{section/dedication.aux}
\@writefile{toc}{\contentsline {chapter}{COVER}{i}\protected@file@percent }
\@input{section/pengesahan.aux}
\@writefile{toc}{\contentsline {chapter}{LEMBAR PENGESAHAN LAPORAN}{ii}\protected@file@percent }
\@input{section/pernyataan.aux}
\@writefile{toc}{\contentsline {chapter}{LEMBAR PERNYATAAN}{iii}\protected@file@percent }
\@input{section/halaman.aux}
\@writefile{toc}{\contentsline {chapter}{HALAMAN PERNYATAAN}{iv}\protected@file@percent }
\@input{section/abstrak.aux}
\@writefile{toc}{\contentsline {chapter}{ABSTRAK}{v}\protected@file@percent }
\@input{section/abstract.aux}
\@writefile{toc}{\contentsline {chapter}{\textit  {ABSTRACT}}{vi}\protected@file@percent }
\@input{section/acknowlegements.aux}
\@writefile{toc}{\contentsline {chapter}{KATA PENGANTAR}{vii}\protected@file@percent }
\@writefile{toc}{\contentsline {chapter}{DAFTAR ISI}{viii}\protected@file@percent }
\@writefile{toc}{\contentsline {chapter}{DAFTAR GAMBAR}{xii}\protected@file@percent }
\@writefile{toc}{\contentsline {chapter}{DAFTAR TABEL}{xiii}\protected@file@percent }
\@input{section/simbol.aux}
\@writefile{toc}{\contentsline {chapter}{DAFTAR SIMBOL}{xiv}\protected@file@percent }
\@input{section/singkatan.aux}
\@writefile{toc}{\contentsline {chapter}{DAFTAR SINGKATAN}{xv}\protected@file@percent }
\@input{section/chapter1.aux}
\@input{section/chapter2.aux}
\@input{section/chapter3.aux}
\@input{section/chapter4.aux}
\@input{section/chapter5.aux}
\@input{section/chapter6.aux}
\@input{section/chapter7.aux}
\bibdata{references}
\bibcite{ng2016artificial}{1}
\bibcite{warwick2013artificial}{2}
\bibcite{suhartono_2013}{3}
\bibcite{al2015improving}{4}
\bibcite{paliwahet2017pencarian}{5}
\bibcite{maskur2016perancangan}{6}
\bibcite{christianto2016penggunaan}{7}
\bibcite{sari2018implementasi}{8}
\bibcite{deshpande2014comparative}{9}
\bibcite{wahyuni2017penerapan}{10}
\@writefile{toc}{\contentsline {chapter}{Daftar Pustaka}{35}\protected@file@percent }
\bibcite{lahitani2016cosine}{11}
\bibcite{nurdiana2016perbandingan}{12}
\bibcite{kmsuper}{13}
\bibcite{nugraha2014pengembangan}{14}
\bibcite{ridwan2013pembangunan}{15}
\bibcite{HAN201283}{16}
\bibcite{rahman2017programming}{17}
\bibcite{bahartyan2015integrasi}{18}
\bibcite{pradnyana2012perancangan}{19}
\bibcite{HAN201239}{20}
\bibcite{nila2016rancang}{21}
\bibcite{fauziah2014aplikasi}{22}
\bibcite{wolstencroft2013taverna}{23}
\bibcite{mustaqbal2016pengujian}{24}
\bibcite{howden1980functional}{25}
\bibcite{rahardjo2017studi}{26}
\bibcite{juliansyah2016metodologi}{27}
\bibcite{pressman2012rekayasa}{28}
\bibcite{yanto2016manajemen}{29}
\bibcite{alegroth2013transitioning}{30}
\@input{section/appendix1.aux}
\@input{section/appendix3.aux}
\@input{section/appendix2.aux}
\bibstyle{IEEEtran}
